[
  [
    "{\"bosses\":[{\"id\":46962,\"name\":\"Baron Ashbury\",\"urlSlug\":\"baron-ashbury\",\"description\":\"Slain by worgen and raised into undeath by the Forsaken, the traitor Baron Ashbury toys with his foes, keeping them alive so he can inflict maximum pain and suffering.\",\"zoneId\":209,\"availableInNormalMode\":true,\"availableInHeroicMode\":true,\"health\":14792,\"heroicHealth\":250414,\"level\":21,\"heroicLevel\":87,\"journalId\":96,\"npcs\":[{\"id\":46962,\"name\":\"Baron Ashbury\",\"urlSlug\":\"baron-ashbury\",\"creatureDisplayId\":34610}],\"encounterFaction\":-1},{\"id\":146416,\"name\":\"Lady Jaina Proudmoore\",\"urlSlug\":\"lady-jaina-proudmoore\",\"description\":\"As the Alliance fleet withdraws from Dazar'alor, Lady Jaina Proudmoore stays behind with a handful of Kul Tiran vessels to slow the Horde's pursuit. Storm clouds gather overhead as Jaina leads her pursuers deeper into the Great Sea, where she will attempt to turn the odds in her favor.\",\"zoneId\":8670,\"availableInNormalMode\":true,\"availableInHeroicMode\":true,\"health\":29940984,\"heroicHealth\":0,\"level\":123,\"heroicLevel\":0,\"journalId\":2343,\"npcs\":[{\"id\":146416,\"name\":\"Lady Jaina Proudmoore\",\"urlSlug\":\"lady-jaina-proudmoore\",\"creatureDisplayId\":87892}],\"encounterFaction\":-1},{\"id\":146497,\"name\":\"The Restless Cabal\",\"urlSlug\":\"the-restless-cabal\",\"description\":\"Called from the depths to retrieve three relics of ancient power, the Restless Cabal is bound to serve N'Zoth and attend to his will. Zaxasj speaks of promises and power while Fa'thuul crushes their opposition with brute force.\",\"zoneId\":10057,\"availableInNormalMode\":true,\"availableInHeroicMode\":true,\"health\":8672249,\"heroicHealth\":0,\"level\":123,\"heroicLevel\":0,\"journalId\":2328,\"npcs\":[{\"id\":146497,\"name\":\"Zaxasj the Speaker\",\"urlSlug\":\"zaxasj-the-speaker\",\"creatureDisplayId\":88850},{\"id\":146495,\"name\":\"Fa'thuul the Feared\",\"urlSlug\":\"fathuul-the-feared\",\"creatureDisplayId\":89415}],\"encounterFaction\":-1},{\"id\":145371,\"name\":\"Uu'nat, Harbinger of the Void\",\"urlSlug\":\"uunat-harbinger-of-the-void\",\"description\":\"When she struck her bargain with N'Zoth ten thousand years ago, Queen Azshara offered one of her most devoted followers into the Old God's service. Now Uu'nat and the crawling masses he commands herald the coming of their master, as foretold by the stars.\",\"zoneId\":10057,\"availableInNormalMode\":true,\"availableInHeroicMode\":true,\"health\":32935082,\"heroicHealth\":0,\"level\":123,\"heroicLevel\":0,\"journalId\":2332,\"npcs\":[{\"id\":145371,\"name\":\"Uu'nat\",\"urlSlug\":\"uunat\",\"creatureDisplayId\":91374}],\"encounterFaction\":-1}]}"
  ]
]